<?xml version="1.0" encoding="UTF-8"?>
<glyph name="c" format="2">
	<unicode hex="0063"/>
	<advance width="1073"/>
	<outline>
		<contour>
			<point x="80" y="505" type="curve" smooth="yes"/>
			<point x="80" y="780"/>
			<point x="294" y="1020"/>
			<point x="569" y="1020" type="curve" smooth="yes"/>
			<point x="770" y="1020"/>
			<point x="923" y="895"/>
			<point x="989" y="750" type="curve" smooth="yes"/>
			<point x="991" y="746"/>
			<point x="992" y="739"/>
			<point x="992" y="734" type="curve" smooth="yes"/>
			<point x="992" y="713"/>
			<point x="976" y="697"/>
			<point x="955" y="697" type="curve" smooth="yes"/>
			<point x="941" y="697"/>
			<point x="925" y="707"/>
			<point x="920" y="719" type="curve" smooth="yes"/>
			<point x="865" y="840"/>
			<point x="737" y="945"/>
			<point x="569" y="945" type="curve" smooth="yes"/>
			<point x="336" y="945"/>
			<point x="155" y="740"/>
			<point x="155" y="505" type="curve" smooth="yes"/>
			<point x="155" y="270"/>
			<point x="336" y="63"/>
			<point x="570" y="63" type="curve" smooth="yes"/>
			<point x="738" y="63"/>
			<point x="867" y="168"/>
			<point x="922" y="289" type="curve" smooth="yes"/>
			<point x="927" y="301"/>
			<point x="942" y="311"/>
			<point x="956" y="311" type="curve" smooth="yes"/>
			<point x="977" y="311"/>
			<point x="994" y="295"/>
			<point x="994" y="274" type="curve" smooth="yes"/>
			<point x="994" y="269"/>
			<point x="992" y="262"/>
			<point x="990" y="258" type="curve" smooth="yes"/>
			<point x="924" y="113"/>
			<point x="771" y="-12"/>
			<point x="570" y="-12" type="curve" smooth="yes"/>
			<point x="294" y="-12"/>
			<point x="80" y="229"/>
		</contour>
	</outline>
	<lib>
		<dict>
			<key>org.fontforge.glyphclass</key>
			<string>baseglyph</string>
		</dict>
	</lib>
</glyph>
