<?xml version="1.0" encoding="UTF-8"?>
<glyph name="ccedilla" format="2">
	<unicode hex="00E7"/>
	<advance width="1073"/>
	<outline>
		<component base="cedilla" xOffset="272" yOffset="2"/>
		<component base="c"/>
	</outline>
</glyph>
