<?xml version="1.0" encoding="UTF-8"?>
<glyph name="eacute" format="2">
	<unicode hex="00E9"/>
	<advance width="1118"/>
	<outline>
		<component base="acute" xOffset="514" yOffset="133"/>
		<component base="e"/>
	</outline>
</glyph>
