<?xml version="1.0" encoding="UTF-8"?>
<glyph name="h1m1" format="2">
	<advance width="2411"/>
	<outline>
		<contour>
			<point x="787" y="345" type="curve" smooth="yes"/>
			<point x="787" y="517"/>
			<point x="650" y="655"/>
			<point x="481" y="655" type="curve" smooth="yes"/>
			<point x="305" y="655"/>
			<point x="169" y="508"/>
			<point x="169" y="346" type="curve" smooth="yes"/>
			<point x="169" y="208"/>
			<point x="264" y="99"/>
			<point x="369" y="59" type="curve" smooth="yes"/>
			<point x="384" y="54"/>
			<point x="392" y="45"/>
			<point x="392" y="32" type="curve" smooth="yes"/>
			<point x="392" y="11"/>
			<point x="378" y="-9"/>
			<point x="360" y="-9" type="curve" smooth="yes"/>
			<point x="353" y="-9"/>
			<point x="348" y="-8"/>
			<point x="344" y="-6" type="curve"/>
			<point x="214" y="43"/>
			<point x="100" y="174"/>
			<point x="100" y="344" type="curve" smooth="yes"/>
			<point x="100" y="560"/>
			<point x="265" y="725"/>
			<point x="481" y="725" type="curve" smooth="yes"/>
			<point x="687" y="725"/>
			<point x="856" y="559"/>
			<point x="856" y="350" type="curve" smooth="yes"/>
			<point x="856" y="235"/>
			<point x="801" y="131"/>
			<point x="733" y="69" type="curve"/>
			<point x="1100" y="71" type="line"/>
			<point x="1100" y="459" type="line"/>
			<point x="1119" y="739"/>
			<point x="1314" y="937"/>
			<point x="1554" y="1003" type="curve" smooth="yes"/>
			<point x="1588" y="1012"/>
			<point x="1629" y="1024"/>
			<point x="1681" y="1024" type="curve" smooth="yes"/>
			<point x="1810" y="1024"/>
			<point x="1905" y="1000"/>
			<point x="2005" y="943" type="curve" smooth="yes"/>
			<point x="2165" y="852"/>
			<point x="2296" y="681"/>
			<point x="2310" y="454" type="curve"/>
			<point x="2312" y="454" type="line"/>
			<point x="2312" y="37" type="line" smooth="yes"/>
			<point x="2312" y="19"/>
			<point x="2295" y="2"/>
			<point x="2277" y="2" type="curve" smooth="yes"/>
			<point x="1189" y="2" type="line"/>
			<point x="616" y="-2" type="line" smooth="yes"/>
			<point x="594" y="-2"/>
			<point x="580" y="14"/>
			<point x="580" y="37" type="curve" smooth="yes"/>
			<point x="580" y="50"/>
			<point x="587" y="59"/>
			<point x="601" y="65" type="curve" smooth="yes"/>
			<point x="697" y="108"/>
			<point x="787" y="212"/>
		</contour>
		<contour>
			<point x="1875" y="698" type="curve" smooth="yes"/>
			<point x="1875" y="821"/>
			<point x="1799" y="950"/>
			<point x="1657" y="950" type="curve" smooth="yes"/>
			<point x="1394" y="950"/>
			<point x="1168" y="726"/>
			<point x="1169" y="454" type="curve" smooth="yes"/>
			<point x="1170" y="72" type="line"/>
			<point x="1216" y="72" type="line" smooth="yes"/>
			<point x="1496" y="72"/>
			<point x="1714" y="275"/>
			<point x="1819" y="489" type="curve" smooth="yes"/>
			<point x="1856" y="565"/>
			<point x="1875" y="635"/>
		</contour>
		<contour>
			<point x="1859" y="930" type="curve"/>
			<point x="1919" y="866"/>
			<point x="1944" y="786"/>
			<point x="1944" y="702" type="curve" smooth="yes"/>
			<point x="1944" y="622"/>
			<point x="1921" y="538"/>
			<point x="1883" y="459" type="curve" smooth="yes"/>
			<point x="1796" y="282"/>
			<point x="1663" y="153"/>
			<point x="1483" y="72" type="curve"/>
			<point x="2242" y="72" type="line"/>
			<point x="2242" y="418" type="line" smooth="yes"/>
			<point x="2241" y="669"/>
			<point x="2067" y="866"/>
		</contour>
	</outline>
	<lib>
		<dict>
			<key>org.fontforge.glyphclass</key>
			<string>baseligature</string>
		</dict>
	</lib>
</glyph>
