<?xml version="1.0" encoding="UTF-8"?>
<glyph name="m1p1r3u1" format="2">
	<advance width="2590"/>
	<outline>
		<component base="u_sign_drop" xOffset="1940" yOffset="-263"/>
		<component base="m1p1r3"/>
	</outline>
	<lib>
		<dict>
			<key>org.fontforge.glyphclass</key>
			<string>baseligature</string>
		</dict>
	</lib>
</glyph>
