<?xml version="1.0" encoding="UTF-8"?>
<glyph name="ml_ii" format="2">
	<unicode hex="0D08"/>
	<advance width="3549"/>
	<outline>
		<component base="au2" xOffset="1964" yOffset="-3"/>
		<component base="ml_i"/>
	</outline>
	<lib>
		<dict>
			<key>org.fontforge.glyphclass</key>
			<string>baseglyph</string>
		</dict>
	</lib>
</glyph>
