<?xml version="1.0" encoding="UTF-8"?>
<glyph name="p3l3" format="2">
	<advance width="2641"/>
	<outline>
		<component base="l4" xOffset="2631" yOffset="6"/>
		<component base="p3"/>
	</outline>
	<lib>
		<dict>
			<key>org.fontforge.glyphclass</key>
			<string>baseligature</string>
		</dict>
	</lib>
</glyph>
