<?xml version="1.0" encoding="UTF-8"?>
<glyph name="quoteleft" format="2">
	<unicode hex="2018"/>
	<advance width="375"/>
	<outline>
		<component base="quotesinglbase" xScale="-1" yScale="-1" xOffset="475" yOffset="1412"/>
	</outline>
</glyph>
