<?xml version="1.0" encoding="UTF-8"?>
<glyph name="quotesingle" format="2">
	<unicode hex="0027"/>
	<advance width="304"/>
	<outline>
		<contour>
			<point x="148" y="1434" type="curve" smooth="yes"/>
			<point x="190" y="1434"/>
			<point x="205" y="1400"/>
			<point x="204" y="1358" type="curve" smooth="yes"/>
			<point x="182" y="1040" type="line" smooth="yes"/>
			<point x="179" y="998"/>
			<point x="175" y="964"/>
			<point x="147" y="964" type="curve" smooth="yes"/>
			<point x="119" y="964"/>
			<point x="111" y="999"/>
			<point x="110" y="1041" type="curve" smooth="yes"/>
			<point x="100" y="1358" type="line" smooth="yes"/>
			<point x="100" y="1399"/>
			<point x="107" y="1434"/>
		</contour>
	</outline>
	<lib>
		<dict>
			<key>org.fontforge.glyphclass</key>
			<string>baseglyph</string>
		</dict>
	</lib>
</glyph>
