<?xml version="1.0" encoding="UTF-8"?>
<glyph name="s1r3u1" format="2">
	<advance width="2998"/>
	<outline>
		<component base="u_sign_drop" xOffset="2388" yOffset="-75"/>
		<component base="s1r3"/>
	</outline>
	<lib>
		<dict>
			<key>org.fontforge.glyphclass</key>
			<string>baseligature</string>
		</dict>
	</lib>
</glyph>
