<?xml version="1.0" encoding="UTF-8"?>
<glyph name="sht1u1" format="2">
	<advance width="2215"/>
	<outline>
		<component base="u_sign_drop" xScale="0.835083" yScale="0.715088" xOffset="1442" yOffset="-599"/>
		<component base="sht1" xOffset="-2"/>
	</outline>
	<lib>
		<dict>
			<key>org.fontforge.glyphclass</key>
			<string>baseligature</string>
		</dict>
	</lib>
</glyph>
