<?xml version="1.0" encoding="UTF-8"?>
<glyph name="th1l3u2" format="2">
	<advance width="1816"/>
	<outline>
		<component base="uu_sign_drop" xOffset="1078" yOffset="-454"/>
		<component base="th1l3"/>
	</outline>
	<lib>
		<dict>
			<key>org.fontforge.glyphclass</key>
			<string>baseligature</string>
		</dict>
	</lib>
</glyph>
