<?xml version="1.0" encoding="UTF-8"?>
<glyph name="uni0D6F" format="2">
	<unicode hex="0D6F"/>
	<advance width="2048"/>
	<outline>
		<contour>
			<point x="1423" y="1013" type="line"/>
			<point x="1729" y="986"/>
			<point x="1941" y="691"/>
			<point x="1941" y="365" type="curve" smooth="yes"/>
			<point x="1941" y="181"/>
			<point x="1832" y="-11"/>
			<point x="1638" y="-11" type="curve" smooth="yes"/>
			<point x="1426" y="-11"/>
			<point x="1348" y="196"/>
			<point x="1348" y="402" type="curve" smooth="yes"/>
			<point x="1348" y="413"/>
			<point x="1349" y="425"/>
			<point x="1349" y="436" type="curve" smooth="yes"/>
			<point x="1353" y="943" type="line"/>
			<point x="1162" y="927"/>
			<point x="1009" y="780"/>
			<point x="985" y="592" type="curve"/>
			<point x="985" y="579" type="line" smooth="yes"/>
			<point x="985" y="401"/>
			<point x="982" y="211"/>
			<point x="982" y="28" type="curve" smooth="yes"/>
			<point x="982" y="9"/>
			<point x="966" y="-6"/>
			<point x="947" y="-6" type="curve" smooth="yes"/>
			<point x="928" y="-6"/>
			<point x="912" y="9"/>
			<point x="912" y="28" type="curve" smooth="yes"/>
			<point x="914" y="595" type="line"/>
			<point x="905" y="788"/>
			<point x="744" y="943"/>
			<point x="551" y="943" type="curve" smooth="yes"/>
			<point x="335" y="943"/>
			<point x="163" y="749"/>
			<point x="163" y="531" type="curve" smooth="yes"/>
			<point x="163" y="270"/>
			<point x="375" y="62"/>
			<point x="641" y="62" type="curve" smooth="yes"/>
			<point x="660" y="62"/>
			<point x="676" y="46"/>
			<point x="676" y="27" type="curve" smooth="yes"/>
			<point x="676" y="1"/>
			<point x="656" y="-8"/>
			<point x="629" y="-8" type="curve" smooth="yes"/>
			<point x="330" y="-8"/>
			<point x="93" y="240"/>
			<point x="93" y="532" type="curve" smooth="yes"/>
			<point x="93" y="789"/>
			<point x="297" y="1013"/>
			<point x="552" y="1013" type="curve" smooth="yes"/>
			<point x="735" y="1013"/>
			<point x="893" y="893"/>
			<point x="954" y="739" type="curve"/>
			<point x="1023" y="887"/>
			<point x="1175" y="1002"/>
			<point x="1353" y="1014" type="curve"/>
			<point x="1356" y="1309" type="line" smooth="yes"/>
			<point x="1356" y="1328"/>
			<point x="1372" y="1344"/>
			<point x="1391" y="1344" type="curve" smooth="yes"/>
			<point x="1410" y="1344"/>
			<point x="1426" y="1328"/>
			<point x="1426" y="1309" type="curve"/>
		</contour>
		<contour>
			<point x="1423" y="942" type="curve"/>
			<point x="1419" y="436" type="line"/>
			<point x="1419" y="427"/>
			<point x="1418" y="417"/>
			<point x="1418" y="408" type="curve" smooth="yes"/>
			<point x="1418" y="238"/>
			<point x="1473" y="59"/>
			<point x="1637" y="59" type="curve" smooth="yes"/>
			<point x="1790" y="59"/>
			<point x="1871" y="216"/>
			<point x="1871" y="366" type="curve" smooth="yes"/>
			<point x="1871" y="656"/>
			<point x="1689" y="914"/>
		</contour>
	</outline>
</glyph>
