<?xml version="1.0" encoding="UTF-8"?>
<glyph name="y1xx" format="2">
	<advance width="2116"/>
	<outline>
		<component base="y1"/>
		<component base="xx" xOffset="2108" yOffset="-34"/>
	</outline>
	<lib>
		<dict>
			<key>org.fontforge.glyphclass</key>
			<string>baseligature</string>
		</dict>
	</lib>
</glyph>
