<?xml version="1.0" encoding="UTF-8"?>
<glyph name="y2" format="2">
	<advance width="618"/>
	<outline>
		<contour>
			<point x="70" y="21" type="curve" smooth="yes"/>
			<point x="89" y="21"/>
			<point x="103" y="3"/>
			<point x="103" y="-17" type="curve" smooth="yes"/>
			<point x="103" y="-29"/>
			<point x="96" y="-39"/>
			<point x="82" y="-47" type="curve" smooth="yes"/>
			<point x="21" y="-84"/>
			<point x="-28" y="-160"/>
			<point x="-28" y="-245" type="curve" smooth="yes"/>
			<point x="-28" y="-377"/>
			<point x="81" y="-484"/>
			<point x="216" y="-484" type="curve" smooth="yes"/>
			<point x="372" y="-484"/>
			<point x="487" y="-358"/>
			<point x="487" y="-205" type="curve" smooth="yes"/>
			<point x="487" y="178"/>
			<point x="110" y="302"/>
			<point x="110" y="762" type="curve" smooth="yes"/>
			<point x="110" y="839"/>
			<point x="120" y="912"/>
			<point x="142" y="985" type="curve" smooth="yes"/>
			<point x="147" y="1002"/>
			<point x="156" y="1011"/>
			<point x="170" y="1011" type="curve" smooth="yes"/>
			<point x="197" y="1011"/>
			<point x="211" y="999"/>
			<point x="211" y="976" type="curve" smooth="yes"/>
			<point x="211" y="972"/>
			<point x="210" y="969"/>
			<point x="209" y="966" type="curve" smooth="yes"/>
			<point x="188" y="896"/>
			<point x="178" y="827"/>
			<point x="178" y="759" type="curve" smooth="yes"/>
			<point x="178" y="346"/>
			<point x="557" y="155"/>
			<point x="557" y="-201" type="curve" smooth="yes"/>
			<point x="557" y="-390"/>
			<point x="416" y="-554"/>
			<point x="220" y="-554" type="curve" smooth="yes"/>
			<point x="23" y="-554"/>
			<point x="-91" y="-395"/>
			<point x="-91" y="-238" type="curve" smooth="yes"/>
			<point x="-91" y="-140"/>
			<point x="-47" y="-43"/>
			<point x="49" y="16" type="curve" smooth="yes"/>
			<point x="55" y="20"/>
			<point x="62" y="21"/>
		</contour>
	</outline>
	<lib>
		<dict>
			<key>org.fontforge.glyphclass</key>
			<string>baseglyph</string>
		</dict>
	</lib>
</glyph>
