<?xml version="1.0" encoding="UTF-8"?>
<glyph name="ch2xx" format="2">
	<advance width="2469"/>
	<outline>
		<component base="ch2"/>
		<component base="xx" xOffset="2463" yOffset="-42"/>
	</outline>
	<lib>
		<dict>
			<key>org.fontforge.glyphclass</key>
			<string>baseligature</string>
		</dict>
	</lib>
</glyph>
