<?xml version="1.0" encoding="UTF-8"?>
<glyph name="Egrave" format="2">
	<unicode hex="00C8"/>
	<advance width="1183"/>
	<outline>
		<component base="grave" xOffset="185.308707124" yOffset="572.0527704485"/>
		<component base="E"/>
	</outline>
</glyph>
