<?xml version="1.0" encoding="UTF-8"?>
<glyph name="n1th3r1" format="2">
	<advance width="2060"/>
	<outline>
		<contour>
			<point x="75" y="533" type="curve" smooth="yes"/>
			<point x="75" y="842"/>
			<point x="326" y="1089"/>
			<point x="630" y="1089" type="curve" smooth="yes"/>
			<point x="814" y="1089"/>
			<point x="957" y="994"/>
			<point x="1038" y="877" type="curve"/>
			<point x="1120" y="998"/>
			<point x="1262" y="1092"/>
			<point x="1453" y="1092" type="curve" smooth="yes"/>
			<point x="1718" y="1092"/>
			<point x="1954" y="911"/>
			<point x="1954" y="642" type="curve" smooth="yes"/>
			<point x="1954" y="514"/>
			<point x="1886" y="410"/>
			<point x="1803" y="352" type="curve"/>
			<point x="1909" y="266"/>
			<point x="1986" y="135"/>
			<point x="1986" y="-34" type="curve" smooth="yes"/>
			<point x="1986" y="-477"/>
			<point x="1530" y="-670"/>
			<point x="1117" y="-670" type="curve" smooth="yes"/>
			<point x="875" y="-670"/>
			<point x="615" y="-620"/>
			<point x="615" y="-366" type="curve" smooth="yes"/>
			<point x="615" y="-152"/>
			<point x="831" y="-56"/>
			<point x="1028" y="-56" type="curve" smooth="yes"/>
			<point x="1230" y="-56"/>
			<point x="1458" y="-147"/>
			<point x="1458" y="-369" type="curve" smooth="yes"/>
			<point x="1458" y="-386"/>
			<point x="1456" y="-402"/>
			<point x="1453" y="-420" type="curve"/>
			<point x="1614" y="-364"/>
			<point x="1785" y="-240"/>
			<point x="1785" y="-32" type="curve" smooth="yes"/>
			<point x="1785" y="113"/>
			<point x="1683" y="239"/>
			<point x="1556" y="259" type="curve"/>
			<point x="1506" y="262" type="line"/>
			<point x="1459" y="269"/>
			<point x="1422" y="314"/>
			<point x="1422" y="361" type="curve" smooth="yes"/>
			<point x="1422" y="406"/>
			<point x="1457" y="450"/>
			<point x="1501" y="459" type="curve"/>
			<point x="1555" y="460" type="line"/>
			<point x="1661" y="482"/>
			<point x="1755" y="522"/>
			<point x="1755" y="644" type="curve" smooth="yes"/>
			<point x="1755" y="795"/>
			<point x="1603" y="892"/>
			<point x="1453" y="892" type="curve" smooth="yes"/>
			<point x="1222" y="892"/>
			<point x="1141" y="716"/>
			<point x="1141" y="480" type="curve" smooth="yes"/>
			<point x="1143" y="81" type="line" smooth="yes"/>
			<point x="1143" y="26"/>
			<point x="1098" y="-19"/>
			<point x="1043" y="-19" type="curve" smooth="yes"/>
			<point x="989" y="-19"/>
			<point x="944" y="25"/>
			<point x="943" y="79" type="curve" smooth="yes"/>
			<point x="943" y="80" type="line"/>
			<point x="940" y="458" type="line" smooth="yes"/>
			<point x="938" y="700"/>
			<point x="867" y="889"/>
			<point x="629" y="889" type="curve" smooth="yes"/>
			<point x="436" y="889"/>
			<point x="276" y="729"/>
			<point x="276" y="535" type="curve" smooth="yes"/>
			<point x="276" y="344"/>
			<point x="427" y="184"/>
			<point x="616" y="176" type="curve" smooth="yes"/>
			<point x="670" y="174"/>
			<point x="714" y="131"/>
			<point x="714" y="77" type="curve" smooth="yes"/>
			<point x="714" y="22"/>
			<point x="668" y="-23"/>
			<point x="613" y="-23" type="curve" smooth="yes"/>
			<point x="318" y="-23"/>
			<point x="75" y="235"/>
		</contour>
		<contour>
			<point x="1031" y="-256" type="curve" smooth="yes"/>
			<point x="935" y="-256"/>
			<point x="815" y="-278"/>
			<point x="815" y="-367" type="curve" smooth="yes"/>
			<point x="815" y="-454"/>
			<point x="947" y="-469"/>
			<point x="1046" y="-469" type="curve" smooth="yes"/>
			<point x="1139" y="-469"/>
			<point x="1258" y="-452"/>
			<point x="1258" y="-370" type="curve" smooth="yes"/>
			<point x="1258" y="-278"/>
			<point x="1130" y="-256"/>
		</contour>
	</outline>
	<lib>
		<dict>
			<key>org.fontforge.glyphclass</key>
			<string>baseligature</string>
		</dict>
	</lib>
</glyph>
