<?xml version="1.0" encoding="UTF-8"?>
<glyph name="t3t3" format="2">
	<advance width="2442"/>
	<outline>
		<contour>
			<point x="1002" y="-160" type="curve" smooth="yes"/>
			<point x="885" y="-160"/>
			<point x="793" y="-265"/>
			<point x="793" y="-376" type="curve" smooth="yes"/>
			<point x="793" y="-467"/>
			<point x="885" y="-580"/>
			<point x="959" y="-582" type="curve" smooth="yes"/>
			<point x="1019" y="-583"/>
			<point x="1079" y="-600"/>
			<point x="1079" y="-670" type="curve" smooth="yes"/>
			<point x="1079" y="-706"/>
			<point x="1049" y="-755"/>
			<point x="1006" y="-755" type="curve" smooth="yes"/>
			<point x="806" y="-755"/>
			<point x="622" y="-593"/>
			<point x="622" y="-395" type="curve" smooth="yes"/>
			<point x="622" y="-173"/>
			<point x="782" y="13"/>
			<point x="1006" y="13" type="curve" smooth="yes"/>
			<point x="1201" y="13"/>
			<point x="1317" y="-134"/>
			<point x="1317" y="-317" type="curve" smooth="yes"/>
			<point x="1317" y="-346"/>
			<point x="1314" y="-378"/>
			<point x="1314" y="-403" type="curve" smooth="yes"/>
			<point x="1314" y="-530"/>
			<point x="1350" y="-591"/>
			<point x="1467" y="-591" type="curve" smooth="yes"/>
			<point x="1586" y="-591"/>
			<point x="1622" y="-483"/>
			<point x="1622" y="-347" type="curve" smooth="yes"/>
			<point x="1622" y="-76" type="line" smooth="yes"/>
			<point x="1622" y="-33"/>
			<point x="1657" y="8"/>
			<point x="1702" y="8" type="curve" smooth="yes"/>
			<point x="1755" y="8"/>
			<point x="1790" y="-22"/>
			<point x="1791" y="-76" type="curve" smooth="yes"/>
			<point x="1791" y="-392" type="line"/>
			<point x="1801" y="-498"/>
			<point x="1884" y="-586"/>
			<point x="2004" y="-586" type="curve" smooth="yes"/>
			<point x="2117" y="-586"/>
			<point x="2217" y="-495"/>
			<point x="2217" y="-380" type="curve" smooth="yes"/>
			<point x="2217" y="-245"/>
			<point x="2118" y="-164"/>
			<point x="1979" y="-164" type="curve" smooth="yes"/>
			<point x="1936" y="-164"/>
			<point x="1905" y="-116"/>
			<point x="1905" y="-80" type="curve" smooth="yes"/>
			<point x="1905" y="-16"/>
			<point x="1970" y="10"/>
			<point x="2043" y="10" type="curve" smooth="yes"/>
			<point x="2226" y="10"/>
			<point x="2383" y="-196"/>
			<point x="2383" y="-377" type="curve" smooth="yes"/>
			<point x="2383" y="-597"/>
			<point x="2207" y="-759"/>
			<point x="1981" y="-759" type="curve" smooth="yes"/>
			<point x="1879" y="-759"/>
			<point x="1792" y="-715"/>
			<point x="1720" y="-631" type="curve"/>
			<point x="1657" y="-717"/>
			<point x="1564" y="-762"/>
			<point x="1465" y="-762" type="curve" smooth="yes"/>
			<point x="1288" y="-762"/>
			<point x="1142" y="-633"/>
			<point x="1142" y="-443" type="curve" smooth="yes"/>
			<point x="1142" y="-399" type="line" smooth="yes"/>
			<point x="1142" y="-364"/>
			<point x="1150" y="-341"/>
			<point x="1150" y="-289" type="curve" smooth="yes"/>
			<point x="1150" y="-218"/>
			<point x="1080" y="-160"/>
		</contour>
		<component base="t3" yOffset="-1"/>
	</outline>
	<lib>
		<dict>
			<key>org.fontforge.glyphclass</key>
			<string>baseligature</string>
		</dict>
	</lib>
</glyph>
