<?xml version="1.0" encoding="UTF-8"?>
<glyph name="uni0D4C" format="2">
	<unicode hex="0D4C"/>
	<advance width="3206"/>
	<outline>
		<component base="hyphen" xOffset="1287" yOffset="-62"/>
		<component base="au2" xScale="0.924609" yScale="1.02419" xOffset="1749" yOffset="-3"/>
		<component base="e1"/>
	</outline>
	<lib>
		<dict>
			<key>org.fontforge.glyphclass</key>
			<string>baseglyph</string>
		</dict>
	</lib>
</glyph>
