<?xml version="1.0" encoding="UTF-8"?>
<glyph name="zhcil" format="2">
	<unicode hex="0D56"/>
	<advance width="1419"/>
	<outline>
		<contour>
			<point x="349.3642578125" y="375.18359375" type="curve"/>
			<point x="223.6575469971" y="445.9820861816"/>
			<point x="99.9999771118" y="581.7752075195"/>
			<point x="99.9999771118" y="771.0205078125" type="curve" smooth="yes"/>
			<point x="99.9999771118" y="881.473449707"/>
			<point x="146.0240631104" y="987.7294921875"/>
			<point x="227.3623046875" y="1063.31640625" type="curve" smooth="yes"/>
			<point x="243.365234375" y="1078.603515625"/>
			<point x="274.3134765625" y="1091.009765625"/>
			<point x="296.4453125" y="1091.009765625" type="curve" smooth="yes"/>
			<point x="351.650390625" y="1091.009765625"/>
			<point x="396.455078125" y="1046.2060546875"/>
			<point x="396.455078125" y="991" type="curve" smooth="yes"/>
			<point x="396.455078125" y="966.4853515625"/>
			<point x="381.6953125" y="933.2470703125"/>
			<point x="363.5087890625" y="916.80859375" type="curve" smooth="yes"/>
			<point x="321.4436645508" y="877.7172241211"/>
			<point x="301.1772155762" y="825.3864746094"/>
			<point x="301.1772155762" y="771.8563842773" type="curve" smooth="yes"/>
			<point x="301.1772155762" y="680.6535644531"/>
			<point x="359.3960571289" y="608.4813842773"/>
			<point x="420.3232421875" y="566.470703125" type="curve"/>
			<point x="505.6591491699" y="706.1625366211"/>
			<point x="631.2299194336" y="786.1585083008"/>
			<point x="631.2299194336" y="981.5021972656" type="curve" smooth="yes"/>
			<point x="631.2299194336" y="1122.5080566406"/>
			<point x="554.2911987305" y="1232.8395996094"/>
			<point x="453.7626953125" y="1290.564453125" type="curve" smooth="yes"/>
			<point x="425.3662109375" y="1306.3388671875"/>
			<point x="402.3193359375" y="1345.505859375"/>
			<point x="402.3193359375" y="1377.990234375" type="curve" smooth="yes"/>
			<point x="402.3193359375" y="1433.1953125"/>
			<point x="447.1240234375" y="1478"/>
			<point x="502.330078125" y="1478" type="curve" smooth="yes"/>
			<point x="518.7725830078" y="1478"/>
			<point x="540.0010986328" y="1471.9265136719"/>
			<point x="553.3544921875" y="1464.005859375" type="curve" smooth="yes"/>
			<point x="693.6470336914" y="1383.4479980469"/>
			<point x="795.1091308594" y="1249.8916015625"/>
			<point x="825.3232421875" y="1075.45703125" type="curve"/>
			<point x="866.0786132812" y="1089.0844726562"/>
			<point x="906.7805175781" y="1095.4245605469"/>
			<point x="946.3485717773" y="1095.4245605469" type="curve" smooth="yes"/>
			<point x="1147.8587646484" y="1095.4245605469"/>
			<point x="1319.9624023438" y="930.9885253906"/>
			<point x="1319.9624023438" y="727.2520141602" type="curve" smooth="yes"/>
			<point x="1319.9624023438" y="532.2102661133"/>
			<point x="1181.0764160156" y="405.3172912598"/>
			<point x="1041.7177734375" y="345.4765625" type="curve"/>
			<point x="1043.6126708984" y="331.3215332031"/>
			<point x="1044.5405273438" y="317.1940307617"/>
			<point x="1044.5405273438" y="303.1688537598" type="curve" smooth="yes"/>
			<point x="1044.5405273438" y="116.5481643677"/>
			<point x="881.333190918" y="-25.6679573059"/>
			<point x="704.3188476562" y="-25.6679573059" type="curve" smooth="yes"/>
			<point x="513.0074462891" y="-25.6679573059"/>
			<point x="346.5099487305" y="130.8824157715"/>
			<point x="346.5099487305" y="328.2005310059" type="curve" smooth="yes"/>
			<point x="346.5099487305" y="343.5665893555"/>
			<point x="347.4481811523" y="359.2365112305"/>
		</contour>
		<contour>
			<point x="1119.9180908203" y="725.6896972656" type="curve" smooth="yes"/>
			<point x="1119.9180908203" y="821.6221923828"/>
			<point x="1036.4892578125" y="893.9465332031"/>
			<point x="940.8065185547" y="893.9465332031" type="curve" smooth="yes"/>
			<point x="872.5474243164" y="893.9465332031"/>
			<point x="802.2686157227" y="844.7286987305"/>
			<point x="802.2686157227" y="780.8935546875" type="curve" smooth="yes"/>
			<point x="802.2686157227" y="677.0717773438"/>
			<point x="912.0041503906" y="598.0601806641"/>
			<point x="962.0712890625" y="529.130859375" type="curve"/>
			<point x="1037.8409423828" y="561.0285644531"/>
			<point x="1119.9180908203" y="625.7965087891"/>
		</contour>
		<contour>
			<point x="670.9736328125" y="598.556640625" type="curve"/>
			<point x="650.158203125" y="571.7607421875"/>
			<point x="613.595703125" y="522.3115234375"/>
			<point x="595.5927734375" y="496.2265625" type="curve"/>
			<point x="636.0689086914" y="490.3736877441"/>
			<point x="714.4287109375" y="488.46484375"/>
			<point x="757.2958984375" y="489.138671875" type="curve"/>
			<point x="736.1240234375" y="513.80078125"/>
			<point x="692.23828125" y="566.9072265625"/>
		</contour>
		<contour>
			<point x="843.8505859375" y="295.48046875" type="curve"/>
			<point x="802.0419921875" y="290.7526550293"/>
			<point x="760.6795043945" y="288.1481018066"/>
			<point x="719.3281860352" y="288.1481018066" type="curve" smooth="yes"/>
			<point x="662.9321289062" y="288.1481018066"/>
			<point x="606.5567626953" y="292.9926147461"/>
			<point x="549.0986328125" y="303.90234375" type="curve"/>
			<point x="562.3352050781" y="232.1535491943"/>
			<point x="625.0254516602" y="173.2283325195"/>
			<point x="703.5840454102" y="173.2283325195" type="curve" smooth="yes"/>
			<point x="776.1331176758" y="173.2283325195"/>
			<point x="837.4169921875" y="225.190536499"/>
		</contour>
	</outline>
</glyph>
