<?xml version="1.0" encoding="UTF-8"?>
<glyph name="ccedilla" format="2">
	<unicode hex="00E7"/>
	<advance width="1128"/>
	<outline>
		<component base="cedilla" xOffset="311" yOffset="-36"/>
		<component base="c"/>
	</outline>
</glyph>
