<?xml version="1.0" encoding="UTF-8"?>
<glyph name="h1u2" format="2">
	<advance width="2431"/>
	<outline>
		<contour>
			<point x="486" y="576" type="curve" smooth="yes"/>
			<point x="354" y="576"/>
			<point x="253" y="475"/>
			<point x="253" y="344" type="curve" smooth="yes"/>
			<point x="253" y="237"/>
			<point x="325" y="156"/>
			<point x="408" y="127" type="curve" smooth="yes"/>
			<point x="433" y="118"/>
			<point x="457" y="90"/>
			<point x="457" y="56" type="curve" smooth="yes"/>
			<point x="457" y="25"/>
			<point x="425" y="-10"/>
			<point x="395" y="-10" type="curve" smooth="yes"/>
			<point x="381" y="-10"/>
			<point x="370" y="-8"/>
			<point x="363" y="-5" type="curve"/>
			<point x="229" y="40"/>
			<point x="113" y="172"/>
			<point x="113" y="343" type="curve" smooth="yes"/>
			<point x="113" y="556"/>
			<point x="291" y="716"/>
			<point x="486" y="716" type="curve" smooth="yes"/>
			<point x="689" y="716"/>
			<point x="857" y="550"/>
			<point x="857" y="339" type="curve" smooth="yes"/>
			<point x="857" y="270"/>
			<point x="835" y="203"/>
			<point x="790" y="137" type="curve"/>
			<point x="1278" y="137" type="line"/>
			<point x="1207" y="211"/>
			<point x="1156" y="327"/>
			<point x="1156" y="452" type="curve" smooth="yes"/>
			<point x="1156" y="794"/>
			<point x="1455" y="1008"/>
			<point x="1796" y="1008" type="curve" smooth="yes"/>
			<point x="2055" y="1008"/>
			<point x="2311" y="872"/>
			<point x="2311" y="606" type="curve" smooth="yes"/>
			<point x="2311" y="498"/>
			<point x="2274" y="427"/>
			<point x="2206" y="365" type="curve"/>
			<point x="2281" y="310"/>
			<point x="2331" y="231"/>
			<point x="2331" y="117" type="curve" smooth="yes"/>
			<point x="2331" y="-167"/>
			<point x="2037" y="-259"/>
			<point x="1744" y="-259" type="curve" smooth="yes"/>
			<point x="439" y="-259" type="line" smooth="yes"/>
			<point x="327" y="-259"/>
			<point x="240" y="-272"/>
			<point x="240" y="-339" type="curve" smooth="yes"/>
			<point x="240" y="-411"/>
			<point x="370" y="-415"/>
			<point x="457" y="-415" type="curve" smooth="yes"/>
			<point x="2274" y="-415" type="line" smooth="yes"/>
			<point x="2301" y="-415"/>
			<point x="2330" y="-446"/>
			<point x="2330" y="-476" type="curve" smooth="yes"/>
			<point x="2330" y="-514"/>
			<point x="2298" y="-546"/>
			<point x="2260" y="-546" type="curve" smooth="yes"/>
			<point x="440" y="-546" type="line" smooth="yes"/>
			<point x="261" y="-546"/>
			<point x="100" y="-501"/>
			<point x="100" y="-338" type="curve" smooth="yes"/>
			<point x="100" y="-175"/>
			<point x="250" y="-110"/>
			<point x="443" y="-110" type="curve" smooth="yes"/>
			<point x="1721" y="-110" type="line" smooth="yes"/>
			<point x="1983" y="-110"/>
			<point x="2190" y="-72"/>
			<point x="2190" y="124" type="curve" smooth="yes"/>
			<point x="2190" y="212"/>
			<point x="2126" y="282"/>
			<point x="2030" y="282" type="curve" smooth="yes"/>
			<point x="2016" y="282"/>
			<point x="2000" y="281"/>
			<point x="1984" y="281" type="curve" smooth="yes"/>
			<point x="1952" y="281"/>
			<point x="1918" y="313"/>
			<point x="1918" y="344" type="curve" smooth="yes"/>
			<point x="1918" y="379"/>
			<point x="1937" y="413"/>
			<point x="1970" y="418" type="curve" smooth="yes"/>
			<point x="2077" y="435"/>
			<point x="2170" y="477"/>
			<point x="2170" y="604" type="curve" smooth="yes"/>
			<point x="2170" y="781"/>
			<point x="1986" y="869"/>
			<point x="1814" y="869" type="curve" smooth="yes"/>
			<point x="1544" y="869"/>
			<point x="1294" y="719"/>
			<point x="1294" y="442" type="curve" smooth="yes"/>
			<point x="1294" y="275"/>
			<point x="1426" y="151"/>
			<point x="1573" y="135" type="curve" smooth="yes"/>
			<point x="1614" y="130"/>
			<point x="1635" y="99"/>
			<point x="1635" y="59" type="curve" smooth="yes"/>
			<point x="1635" y="26"/>
			<point x="1600" y="-5"/>
			<point x="1565" y="-5" type="curve" smooth="yes"/>
			<point x="600" y="-5" type="line" smooth="yes"/>
			<point x="564" y="-5"/>
			<point x="530" y="29"/>
			<point x="530" y="63" type="curve" smooth="yes"/>
			<point x="530" y="97"/>
			<point x="543" y="120"/>
			<point x="570" y="131" type="curve" smooth="yes"/>
			<point x="645" y="163"/>
			<point x="714" y="242"/>
			<point x="714" y="343" type="curve" smooth="yes"/>
			<point x="714" y="472"/>
			<point x="613" y="576"/>
		</contour>
	</outline>
	<lib>
		<dict>
			<key>org.fontforge.glyphclass</key>
			<string>baseligature</string>
		</dict>
	</lib>
</glyph>
