<?xml version="1.0" encoding="UTF-8"?>
<glyph name="igrave" format="2">
	<unicode hex="00EC"/>
	<advance width="392"/>
	<outline>
		<component base="grave" xOffset="-170" yOffset="158"/>
		<component base="dotlessi"/>
	</outline>
</glyph>
