<?xml version="1.0" encoding="UTF-8"?>
<glyph name="k1th1" format="2">
	<advance width="3309"/>
	<outline>
		<contour>
			<point x="585" y="311" type="curve"/>
			<point x="567" y="371"/>
			<point x="559" y="432"/>
			<point x="559" y="500" type="curve"/>
			<point x="398" y="488"/>
			<point x="239" y="429"/>
			<point x="239" y="278" type="curve" smooth="yes"/>
			<point x="239" y="189"/>
			<point x="315" y="121"/>
			<point x="402" y="121" type="curve" smooth="yes"/>
			<point x="514" y="121"/>
			<point x="585" y="201"/>
		</contour>
		<contour>
			<point x="699" y="505" type="line"/>
			<point x="695" y="310"/>
			<point x="803" y="121"/>
			<point x="994" y="121" type="curve" smooth="yes"/>
			<point x="1189" y="121"/>
			<point x="1300" y="312"/>
			<point x="1295" y="508" type="curve"/>
		</contour>
		<contour>
			<point x="2394" y="813" type="curve"/>
			<point x="2269" y="737"/>
			<point x="2163" y="594"/>
			<point x="2163" y="408" type="curve" smooth="yes"/>
			<point x="2163" y="263"/>
			<point x="2247" y="115"/>
			<point x="2394" y="115" type="curve" smooth="yes"/>
			<point x="2539" y="115"/>
			<point x="2623" y="260"/>
			<point x="2623" y="404" type="curve" smooth="yes"/>
			<point x="2623" y="590"/>
			<point x="2526" y="735"/>
		</contour>
		<contour>
			<point x="1272" y="648" type="line"/>
			<point x="1233" y="770"/>
			<point x="1130" y="878"/>
			<point x="999" y="878" type="curve" smooth="yes"/>
			<point x="863" y="878"/>
			<point x="760" y="769"/>
			<point x="721" y="645" type="curve"/>
		</contour>
		<contour>
			<point x="3070" y="480" type="curve" smooth="yes"/>
			<point x="3070" y="708"/>
			<point x="2873" y="882"/>
			<point x="2641" y="882" type="curve" smooth="yes"/>
			<point x="2611" y="882"/>
			<point x="2580" y="879"/>
			<point x="2549" y="873" type="curve"/>
			<point x="2685" y="754"/>
			<point x="2762" y="617"/>
			<point x="2762" y="409" type="curve" smooth="yes"/>
			<point x="2762" y="183"/>
			<point x="2625" y="-22"/>
			<point x="2394" y="-22" type="curve" smooth="yes"/>
			<point x="2166" y="-22"/>
			<point x="2023" y="183"/>
			<point x="2023" y="405" type="curve" smooth="yes"/>
			<point x="2023" y="609"/>
			<point x="2107" y="757"/>
			<point x="2237" y="871" type="curve"/>
			<point x="2211" y="875"/>
			<point x="2186" y="878"/>
			<point x="2161" y="878" type="curve" smooth="yes"/>
			<point x="1919" y="878"/>
			<point x="1747" y="694"/>
			<point x="1747" y="453" type="curve" smooth="yes"/>
			<point x="1747" y="287"/>
			<point x="1865" y="160"/>
			<point x="1971" y="110" type="curve" smooth="yes"/>
			<point x="1998" y="97"/>
			<point x="2012" y="79"/>
			<point x="2012" y="54" type="curve" smooth="yes"/>
			<point x="2012" y="13"/>
			<point x="1985" y="-24"/>
			<point x="1948" y="-24" type="curve" smooth="yes"/>
			<point x="1933" y="-24"/>
			<point x="1920" y="-22"/>
			<point x="1911" y="-17" type="curve"/>
			<point x="1759" y="55"/>
			<point x="1626" y="217"/>
			<point x="1607" y="418" type="curve"/>
			<point x="1556" y="457"/>
			<point x="1499" y="482"/>
			<point x="1435" y="495" type="curve"/>
			<point x="1435" y="225"/>
			<point x="1269" y="-17"/>
			<point x="992" y="-17" type="curve" smooth="yes"/>
			<point x="856" y="-17"/>
			<point x="745" y="58"/>
			<point x="681" y="134" type="curve"/>
			<point x="627" y="43"/>
			<point x="536" y="-21"/>
			<point x="402" y="-21" type="curve" smooth="yes"/>
			<point x="237" y="-21"/>
			<point x="100" y="113"/>
			<point x="100" y="278" type="curve" smooth="yes"/>
			<point x="100" y="522"/>
			<point x="332" y="630"/>
			<point x="576" y="642" type="curve"/>
			<point x="624" y="849"/>
			<point x="789" y="1018"/>
			<point x="1000" y="1018" type="curve" smooth="yes"/>
			<point x="1204" y="1018"/>
			<point x="1373" y="846"/>
			<point x="1419" y="640" type="curve"/>
			<point x="1491" y="630"/>
			<point x="1557" y="609"/>
			<point x="1617" y="578" type="curve"/>
			<point x="1668" y="820"/>
			<point x="1885" y="1018"/>
			<point x="2161" y="1018" type="curve" smooth="yes"/>
			<point x="2236" y="1018"/>
			<point x="2314" y="1002"/>
			<point x="2393" y="968" type="curve"/>
			<point x="2476" y="1004"/>
			<point x="2560" y="1021"/>
			<point x="2641" y="1021" type="curve" smooth="yes"/>
			<point x="2944" y="1021"/>
			<point x="3209" y="790"/>
			<point x="3209" y="479" type="curve" smooth="yes"/>
			<point x="3209" y="236"/>
			<point x="3050" y="46"/>
			<point x="2865" y="-15" type="curve" smooth="yes"/>
			<point x="2857" y="-18"/>
			<point x="2846" y="-19"/>
			<point x="2832" y="-19" type="curve" smooth="yes"/>
			<point x="2803" y="-19"/>
			<point x="2770" y="16"/>
			<point x="2770" y="46" type="curve" smooth="yes"/>
			<point x="2770" y="81"/>
			<point x="2789" y="106"/>
			<point x="2827" y="120" type="curve" smooth="yes"/>
			<point x="2957" y="168"/>
			<point x="3070" y="306"/>
		</contour>
	</outline>
	<lib>
		<dict>
			<key>org.fontforge.glyphclass</key>
			<string>baseligature</string>
		</dict>
	</lib>
</glyph>
