<?xml version="1.0" encoding="UTF-8"?>
<glyph name="k3l3u1" format="2">
	<advance width="1841"/>
	<outline>
		<component base="u_sign_drop" xOffset="1129" yOffset="-454"/>
		<component base="k3l3"/>
	</outline>
	<lib>
		<dict>
			<key>org.fontforge.glyphclass</key>
			<string>baseligature</string>
		</dict>
	</lib>
</glyph>
