<?xml version="1.0" encoding="UTF-8"?>
<glyph name="k4r3u2" format="2">
	<advance width="2868"/>
	<outline>
		<component base="uu_sign_drop" xOffset="2115" yOffset="-325"/>
		<component base="k4r3" yOffset="4"/>
	</outline>
	<lib>
		<dict>
			<key>org.fontforge.glyphclass</key>
			<string>baseligature</string>
		</dict>
	</lib>
</glyph>
