<?xml version="1.0" encoding="UTF-8"?>
<glyph name="Q" format="2">
	<unicode hex="0051"/>
	<advance width="1610"/>
	<outline>
		<contour>
			<point x="1437" y="-147" type="curve" smooth="yes"/>
			<point x="1467" y="-147"/>
			<point x="1499" y="-188"/>
			<point x="1499" y="-221" type="curve" smooth="yes"/>
			<point x="1499" y="-300"/>
			<point x="1401" y="-307"/>
			<point x="1318" y="-307" type="curve" smooth="yes"/>
			<point x="1269" y="-307" type="line" smooth="yes"/>
			<point x="1014" y="-307"/>
			<point x="806" y="-221"/>
			<point x="727" y="-47" type="curve"/>
			<point x="358" y="-17"/>
			<point x="100" y="259"/>
			<point x="100" y="663" type="curve" smooth="yes"/>
			<point x="100" y="1081"/>
			<point x="383" y="1383"/>
			<point x="807" y="1383" type="curve" smooth="yes"/>
			<point x="1231" y="1383"/>
			<point x="1510" y="1082"/>
			<point x="1510" y="663" type="curve" smooth="yes"/>
			<point x="1510" y="264"/>
			<point x="1258" y="-7"/>
			<point x="906" y="-45" type="curve"/>
			<point x="988" y="-126"/>
			<point x="1098" y="-167"/>
			<point x="1237" y="-167" type="curve" smooth="yes"/>
			<point x="1298" y="-167"/>
			<point x="1366" y="-147"/>
		</contour>
		<contour>
			<point x="264" y="663" type="curve" smooth="yes"/>
			<point x="264" y="337"/>
			<point x="473" y="90"/>
			<point x="807" y="90" type="curve" smooth="yes"/>
			<point x="1145" y="90"/>
			<point x="1342" y="330"/>
			<point x="1342" y="663" type="curve" smooth="yes"/>
			<point x="1342" y="995"/>
			<point x="1143" y="1241"/>
			<point x="807" y="1241" type="curve" smooth="yes"/>
			<point x="476" y="1241"/>
			<point x="264" y="987"/>
		</contour>
	</outline>
	<lib>
		<dict>
			<key>org.fontforge.glyphclass</key>
			<string>baseglyph</string>
		</dict>
	</lib>
</glyph>
